{
    "prepare_queue": {
        "installed": [],
        "uninstalled": []
    },
    "config_munge": {
        "files": {
            "www/config.xml": {
                "parents": {
                    "/widget/rim:permissions": [
                        {
                            "xml": "<rim:permit>read_device_identifying_information</rim:permit>",
                            "count": 1
                        },
                        {
                            "xml": "<rim:permit>read_geolocation</rim:permit>",
                            "count": 1
                        }
                    ],
                    "/widget": [
                        {
                            "xml": "<feature name=\"com.blackberry.identity\" value=\"com.blackberry.identity\" />",
                            "count": 1
                        },
                        {
                            "xml": "<feature name=\"com.blackberry.ui.toast\" value=\"com.blackberry.ui.toast\" />",
                            "count": 1
                        },
                        {
                            "xml": "<feature name=\"com.blackberry.utils\" />",
                            "count": 1
                        },
                        {
                            "xml": "<feature name=\"Geolocation\" value=\"Geolocation\" />",
                            "count": 1
                        },
                        {
                            "xml": "<feature name=\"com.blackberry.app\" value=\"com.blackberry.app\" />",
                            "count": 1
                        },
                        {
                            "xml": "<feature name=\"com.blackberry.connection\" value=\"com.blackberry.connection\" />",
                            "count": 1
                        }
                    ]
                }
            }
        },
        "www/config.xml": {
            "/widget": {
                "<feature name=\"NetworkStatus\" value=\"NetworkStatus\" />": 1
            }
        }
    },
    "installed_plugins": {
        "com.blackberry.identity": {
            "PACKAGE_NAME": "community.iReport"
        },
        "com.blackberry.ui.toast": {
            "PACKAGE_NAME": "community.iReport"
        },
        "com.blackberry.utils": {
            "PACKAGE_NAME": "community.iReport"
        },
        "org.apache.cordova.geolocation": {
            "PACKAGE_NAME": "community.iReport"
        },
        "com.blackberry.app": {
            "PACKAGE_NAME": "community.iReport"
        },
        "com.blackberry.connection": {
            "PACKAGE_NAME": "community.iReport"
        },
        "org.apache.cordova.network-information": {
            "PACKAGE_NAME": "community.iReport"
        }
    },
    "dependent_plugins": {}
}